{
    "Version": "2012-10-17",
    "Statement": [
        {
            "Effect": "Allow",
            "Principal": {
                "Federated": "arn:aws:iam::064887354011:oidc-provider/oidc.eks.us-east-1.amazonaws.com/id/CC5AA9D5103D2EF59AB7AEF83B41ADB8"
            },
            "Action": "sts:AssumeRoleWithWebIdentity",
            "Condition": {
                "StringEquals": {
                    "oidc.eks.us-east-1.amazonaws.com/id/CC5AA9D5103D2EF59AB7AEF83B41ADB8:aud": "sts.amazonaws.com",
                    "oidc.eks.us-east-1.amazonaws.com/id/CC5AA9D5103D2EF59AB7AEF83B41ADB8:sub": "system:serviceaccount:karpenter:karpenter"
                }
            }
        }
    ]
}
